Snake,3.46,6.06
Snake,4.12,6.15
Snake,3.65,5.54
Snake,3.9,5.54
Snake,3.25,6.29
Snake,3.59,6.33
Snake,3.02,6.9
Snake,3.28,6.06
Snake,2.99,6.89
Snake,3.49,6.08
Snake,3.59,5.82
Snake,3.29,5.94
Snake,3.52,6.11
Snake,3.65,5.9
Snakes,2.81,5.83
Snake,4.6,4.79
Snake,3.26,6.38
Snake,3.43,6.34
Snake,3.03,7.2
Lizard,5.65,5.06
Lizard,4.91,4.46
Spider,3.44,6.69
Spider,2.93,6.87
Spider,2.98,5.8
Spider,3.22,5.94
Spider,3.05,5.74
Spider,3.92,4.72
Spider,4.31,4.15
Spider,3.72,5.03
Roach,3.06,5.37
Roaches,2.65,6.01
Roaches,2.86,5.66
Roaches,3.06,5.47
Rat,3.16,5.24
PitBull,3.41,6.7
Dog,3.32,5.91
Dog,4.11,6.08
Dog,4.66,5.96
AttackDog,3.02,6.35
Leopard,4.05,6.09
Frog,5.76,4.71
Bear,3.9,6.85
Parrots,6.41,2.96
Women,7.63,5.25
Pig,5.45,4.41
Bees,4.09,5.41
Ferret,7.09,4.28
Birds,6.96,3.26
Seal,8.43,4.47
PolarBears,8.14,4
Gannet,6.87,2.8
Kitten,8.58,4.42
Kittens,7.81,5.11
Dog,7.72,4.15
DogRace,3.78,4.66
Dog,7.15,4.41
AttackDog,2.67,6.86
Cat,7.49,4.77
Hawk,5.41,5.33
Horse,7.6,4.73
Horse,7.64,4.75
Pony,6.29,4.6
Horse,7.8,4.03
Giraffes,7.17,4.02
Butterfly,7.08,3.66
Butterfly,7.41,3.28
Butterfly,7.62,3.39
Butterfly,6.91,3.3
Rabbit,8.39,3.33
Rabbit,8,3.75
Bird,5.14,4.15
Mole,3.76,5.02
Antelope,7.95,3.49
Fawn,7.74,4.45
Coyote,6.32,5.13
Coyote,6.17,5.44
Wolf,4.74,5.2
Jaguar,6.49,6.05
Gorilla,6.79,4.79
Gorilla,6.33,4.69
Orangutan,6.33,4.26
Cow,7.11,3.16
Cow,5.88,3.52
Buffalo,5.1,4.36
Puppies,8.59,5.31
Lion,6.78,5.08
Lion,7.7,4.48
Jaguars,7.18,5.6
Tiger,4.34,6.32
Lion,7.27,4.48
Owl,7,3.83
Bunnies,8.59,4.02
Hippo,6.68,3.94
Monkeys,7.95,5.21
Elephants,7.22,3.65
Crocodile,4.99,5.91
Camels,6.17,3.84
Fish,6.83,3.74
Shrimp,5.54,4.18
Jellyfish,5.15,4.83
Grouper,6.89,2.83
Porpoise,7.94,4.31
Shark,3.56,6.71
Shark,3.57,6.73
Shark,2.92,6.73
HermitCrab,4.63,4.43
Turtles,6.34,4.06
Turtle,4.22,4.51
Octopus,5.68,4.17
Mickey,7.68,5.02
Adult,7.1,3.72
Man,5.03,3.59
AttractiveMan,6.76,4.91
Adult,6.77,3.74
VeiledWoman,5.26,4.48
AttractiveFem,5.71,3.54
Adult,5.97,3.41
Woman,5.44,3.63
Woman,4.85,3.38
Woman,6.02,3.08
Makeup,5.82,3.85
Cheerleaders,5.38,4.15
Kid,7.79,3.9
Woman,5.81,3.51
Woman,6.4,2.83
NeuWoman,5.11,2.84
Woman,3.55,3.48
Baby,8.74,4.97
Baby,8.17,6.02
Baby,8.62,5.1
Baby,2.17,5.83
ManInPool,2.84,5.23
ManInPool,6.87,4.71
Diving,6.51,4.68
Father,8.39,4.73
Baby,8.24,5.45
Baby,6.88,3.8
Baby,8.5,4.84
Baby,8.21,5.33
Baby,7.85,5.58
Babies,8.46,4.94
Girls,8.26,4.77
Clowns,6.7,4.71
Toddler,1.48,5.72
AngryFace,3.37,5.32
Man,4.49,3.57
NeuMan,5.13,2.92
NeuWoman,4.42,3.22
Male,5.62,3.47
AngryFace,3.44,5.05
BodyPierce,3.51,5.37
AngryFace,3.03,5.44
TongueOut,5.22,4.93
Woman,3.98,5.13
GrievingFem,2.27,5.35
Baby,8.31,5.29
Father/Child,7.88,4.52
Mother,6.97,3.87
Mother,7.2,4.31
Family,8.17,4.4
Pregnant,7.17,5.56
Family,7.46,4.52
Children,7.56,5.05
Father,8.16,5.03
Father,8.29,5.05
Mother,7.69,4.21
Man,4.9,2.5
Farmer,5.14,3.6
NeutFace,4.95,4.03
Hospital,1.65,4.65
Fingerprint,4.2,3.84
Bride,7.55,6.14
Bride,7.95,5.91
NeutFace,4.36,4.41
NeutFace,4.6,3.44
Man,5.46,4.65
NeutMan,5.11,3.86
NeutMan,4.53,3.44
Children,7.85,6.29
Class,6.45,4.22
MaleFace,4.88,4.84
Judge,4.33,3.05
BoysReading,7.59,4.39
Boys,7.63,5.06
SadFace,4.41,4.14
Butcher,5.79,3.38
NeutChild,7.08,4.21
NeutBaby,7.53,4.45
NeutBaby,8.51,4.77
NeutChild,6.95,3.21
Woman,4.11,3.85
LonelyBoy,4.49,3.88
Boy,5.58,3.71
Kids,7.96,4.64
Girl,2.32,5.06
Kids,3.34,4.7
Braces,4.81,3.75
Boy,3.97,3.96
Family,7.76,3.96
AttractiveFem,7.14,5.09
KidCry,2.68,4.75
ChildCamera,6.51,3.76
Children,7.04,5.88
Girl,7.7,3.91
Woman,5.14,3.05
Boy,7.33,4.62
GirlMakeup,5.26,4.22
GirlCow,4.75,4.64
Mother,7.37,4.34
Mother,7.82,4.03
Mother,3.51,4.2
Binoculars,7.96,4.26
Girl,6.82,3.2
Chef,7.69,4.6
Family,7.94,4.36
Father,6.78,4.05
Family,8.34,4.53
Children,7.82,4.5
Children,6.4,4.38
Children,7.18,5.13
BlackEye,2.08,5.65
Children,7.75,5.99
Kids,7.01,5.16
Children,8.35,5.88
NursingBaby,5.49,4.87
Kiss,7.38,5.13
Kiss,7.57,5.28
BloodyKiss,1.87,6.57
Man,5.48,3.56
Family,6.75,3.66
Mother/Child,6,3.91
Family,8.2,3.67
Girl&Dog,6.75,4.14
ThreeMen,7.43,2.93
Woman,5.55,4.49
Band,7.1,4.11
Woman,6.4,3.25
Woman,1.91,5.22
AttractiveFem,6.32,3.52
Reading,5.3,3.69
Girl,5.03,2.5
Artist,5.69,3.64
Secretary,4.79,3.36
Fisherman,5.86,3.23
Girl,5.15,3.58
Kids,7.68,4.1
Kids,8.1,3.73
Teens,6.76,5.9
Couple,5.49,3.63
Boy,6.9,3.78
ManW/Fish,6.15,3.79
Factoryworker,4.92,2.95
Medicalworker,6.14,3.94
Family,8.31,4.48
Couple,4.86,3.27
Men,4.93,2.56
Boat,7.46,4.51
Woman,3.5,4.11
Woman,4.05,4.33
Boy,4.54,4.4
Girl,5.06,2.96
Mom/Son,5.96,3.87
NeutGirl,4.54,2.82
NeutralGirl,4.35,3.74
DryingHair,6.51,4.19
Feet,5.48,3.59
Boots,4.62,3.51
SadGirls,2.63,4.65
CryingFamily,2.64,5.16
CryingBoy,2.91,5.36
CryingBaby,4.65,5.44
ElderlyMan,4.77,2.55
Amerindian,5.07,3.77
Man,5.91,3.72
Musician,5.28,4.27
Musician,5.91,3.98
Musician,5.63,3.94
Man,2.74,4.06
SickMan,3.96,3.34
NeutralMale,5.1,3.54
Man,5.14,3.47
NeutralMale,5.35,2.99
Man,6.44,3.56
Couple,7.45,3.51
Woman,5.59,3.09
ElderlyWoman,7.13,3.88
Woman,6.41,3.37
Man,4.78,3.29
Woman,5.9,3.21
Woman,5.21,3.53
Harvest,6.31,3.91
ElderlyWoman,4.76,3.45
Quilting,5.85,3.37
ElderlyMan,4.14,4.23
ManW/Dog,5.88,3.97
Women,3.89,4.35
Couple,8.25,3.8
Mother,7.95,3.76
Couple,8.14,5.16
Picnic,6.64,3.56
Man,4.95,2.98
Propeller,5.32,4.24
Bakers,5.39,3.79
Chess,5.9,2.84
ElderlyWoman,3.46,3.86
Men,5.73,3.22
City,6.06,3.77
Women,4.97,3.65
Market,5.46,3.76
Family,7.47,3.71
Beer,5.77,3.98
Dance,6.44,4.84
Dance,5.66,4.29
Dancer,5.85,4.88
Woman,6.07,2.5
Male,7.36,4.97
Cowboy,5.19,4.39
Boy,7.71,4.31
Child,7.06,4.87
Baby,8.18,4.76
Baby,4.46,6.27
Police,4.26,4.87
Police,3.48,4.52
War,1.97,6.42
Hunters,2.36,5.99
Terrorist,4.57,4.13
Riot,2.3,6.01
Bomb,2.77,5.57
Police,2.97,5.17
Refugees,3.55,4.66
Woman,3.1,4.94
BingeEating,4.77,3.63
SadChildren,1.59,5.81
Soldiers,4.6,5.34
DrugAddict,2.16,5.57
Smoking,2.99,4.69
Pipe,3.5,4.73
DrugAddict,2.35,5.81
DrugAddict,3.43,4.73
Urinating,5.24,3.73
Jail,2.94,3.77
NativeBoy,1.8,6.93
Shopping,5.38,3.31
Shoplifter,3.27,5.42
Smoking,4.97,3.81
Bum,2.55,4.55
DrunkDriving,2.06,5.55
Alcoholic,3.66,4.48
Alcoholic,2.67,4.62
Mask,3.9,5.21
Actor,4.78,5.01
Balloons,7.25,4.08
Boy,3.77,4.98
Funeral,2.21,5.19
SadChild,1.41,5.87
Boy,4.14,4.56
Gun,1.74,7.27
Woman,4.48,3.43
Chess,4.9,2.55
Tourist,5.69,3.38
Teenager,5.41,3.11
Shadow,5.22,3.17
Twins,5.02,2.9
CryingBoy,2.16,5.4
CryingBoy,2.14,4.9
SmilingGirl,6.91,4.72
FoodBasket,5.77,3.08
DeerHead,2.09,6.33
Mutilation,1.21,7.77
Mutilation,1.17,7.63
HeadlessBody,1.33,7.1
OpenGrave,1.35,6.74
Gold,5.87,5.03
Mutilation,1.29,7.44
Mutilation,1.47,7.38
Accident,1.34,6.11
Mutilation,1.6,5.94
Mutilation,2.23,5.75
Organs,2.61,6.7
Scream,3.29,6.06
Mutilation,1.51,7.13
Mutilation,2.06,6
BurnVictim,1.15,7.51
Mutilation,1.47,6.5
Mutilation,1.66,7.34
Mutilation,1.97,5.34
Mutilation,1.62,5.84
Mutilation,1.18,7.18
Mutilation,1.15,7.3
Mutilation,1.18,7.09
Mutilation,1.32,7.33
Mutilation,1.69,7.1
Mutilation,1.33,7.61
BurnVictim,1.35,7.02
BurntFace,1.64,5.96
BurnVictim,1.22,7.15
Injury,1.71,6.6
BurnVictim,1.47,6.98
DeadBody,1.33,7.49
Mutilation,1.26,7.39
Mutilation,1.4,6.62
DeadBody,1.5,6.94
Mutilation,1.98,6.94
EyeDisease,2.55,5.44
Mutilation,1.33,6.27
BabyTumor,1.2,7.55
BatteredFem,1.67,6.19
BatteredFem,2.01,5.16
Stitches,2.52,5.68
Scar,3.33,4.9
BatteredFem,1.68,6.26
Stitches,1.79,6.42
Surgery,4.21,5.5
Surgery,4.23,5.82
Surgery,2.55,6.99
Surgery,2.61,6.79
BurnVictim,2.22,5.6
MedicalAssist,3.09,5.41
Hospital,2.41,5.88
Mutilation,1.66,6.32
DyingMan,1.67,5.75
OpenChest,3.67,6.45
Tumor,1.7,5.92
Injury,1.26,7.43
DentalExam,3.62,5.08
DisabledChild,2.35,4.96
InjuredChild,1.49,5.51
SickBaby,4.16,5.67
Incubator,4.32,5.99
Infant,1.76,5.78
Fetus,3.98,5.58
SeveredHand,2.06,7.12
Attack,1.94,7.16
Attack,1.51,6.8
Injury,1.98,6.14
PlaneCrash,1.92,6.62
Coach,4.71,5.4
Artist,4.28,3.67
EroticFemale,3.58,3.88
EroticFemale,4.14,3.72
EroticFemale,4.3,4.25
EroticFemale,4.17,3.71
EroticFemale,4.36,4.28
EroticFemale,5.22,4.43
AttractiveFem,5.28,4.45
EroticFemale,4.6,4.73
AttractiveFem,5.23,4.24
EroticFemale,4.35,4.68
Bikini,5.17,4.17
MaleDancers,6.7,4.5
EroticFemales,4.16,4.25
EroticFemale,4.01,4
EroticFemale,3.49,4.32
AttractiveFem,5.36,3.44
EroticFemale,4.21,3.62
EroticFemale,3.13,4.31
EroticFemale,5.29,3.63
EroticFemale,5.61,4
EroticFemale,5.15,4.4
Prostitute,3.87,4.34
EroticFemale,4.06,5.06
Prostitute,3.89,3.43
EroticFemale,3.67,3.97
EroticFemale,3.73,3.65
AttractiveFem,5.18,3.31
EroticFemale,4.86,3.85
AttractiveFem,4.49,3.26
AttractiveFem,4.38,3.25
EroticFemale,4.16,2.89
EroticFemale,3.67,4.1
EroticFemale,4.19,4.98
EroticFemale,3.3,4.53
EroticFemale,4.81,4.23
EroticFemale,5.89,6.08
EroticFemale,4.66,3.96
AttractiveFem,5.31,4.12
EroticMale,6.29,5.78
EroticMale,6.75,6.03
EroticMale,6.27,6.06
AttractiveMan,6.9,5.08
EroticMale,6.72,5.81
AttractiveMale,7.2,6.46
AttractiveMan,7,6.05
EroticMale,7.04,5.48
EroticMale,6.94,5.69
AttractiveMale,7.67,6.7
EroticMale,6.19,5.31
EroticMale,6.96,5.79
AttractiveMan,7.62,5.55
AttractiveMan,7,5.89
MaleDancer,6.56,5.05
Weightlifter,7.06,5.58
AttractiveMan,6.58,4.69
AttractiveMan,6.44,5.59
EroticMale,7.04,6.14
BeachBoys,7.51,6.17
EroticMale,6.22,6.24
EroticMale,5.88,5.25
EroticMale,6.1,5.9
AttractiveMan,6.18,4.62
AttractiveMan,7.52,6.3
AttractiveMale,6.03,4.4
AttractiveMan,7.4,4.95
AttractiveMale,7.61,6.12
Romance,7.23,6.06
Couple,6.13,5.77
Romance,7.23,5.64
Romance,6.8,5.08
Romance,6.68,4.91
Romance,7.58,5
EroticCouple,5.71,5.94
Couple,5.34,3.36
Romance,6.74,5.13
EroticCouple,6.25,5.59
EroticCouple,6.66,6.14
Couple,6.95,5.68
Romance,7.79,5.04
EroticCouple,6,5.58
Couple,7.05,5
Condom,5.28,4.51
Romance,7.71,5.38
Romance,7.28,4.66
EroticFemale,6.7,5.38
Romance,6.62,5.2
Harassment,2.71,5.24
Romance,8.17,4.1
Romance,7.49,5.37
Couple,7.17,5.21
Couple,6.51,5.13
Wedding,7.8,6.06
Wedding,7.78,5.54
BikerCouple,4.8,4.53
Prostitute,3.2,4.39
Romance,7.64,5.94
Romance,7.21,5.33
EroticCouple,6.73,5.92
EroticCouple,6.9,5.81
EroticCouple,5.02,5.69
EroticCouple,5,5.41
EroticCouple,6.94,5.48
EroticCouple,5.15,5.71
EroticCouple,5.65,5.98
EroticCouple,6.04,5.68
EroticCouple,6.44,6.38
EroticCouple,6.08,6.16
EroticCouple,6.15,6.47
EroticCouple,7.22,6.31
EroticCouple,5.42,5.87
EroticCouple,4.42,6.06
Attack,2.21,6.04
EroticCouple,5.88,5.88
EroticCouple,6.31,6.85
EroticCouple,5.18,5.82
EroticCouple,6.4,6.42
EroticCouple,5.6,6.17
EroticCouple,6.62,5.95
EroticCouple,6.63,6.38
EroticCouple,6.91,6.07
EroticCouple,6.42,6.37
EroticCouple,5.29,6.16
EroticCouple,6.64,6.49
EroticCouple,6.82,6.18
EroticCouple,6.43,5.79
EroticCouple,5.06,6.06
EroticCouple,5.63,6.56
EroticCouple,6.22,5.99
EroticCouple,6.38,6.25
EroticCouple,5.58,6.28
EroticCouple,6.38,6.58
Couple,7.08,4.1
NudeFemale,4.56,4.17
FemaleKiss,3.47,5.31
EroticCouple,5.45,6.39
EroticCouple,5.98,6.44
Flower,7.59,2.9
Sunflower,7.78,3.94
Flower,7.55,3.24
Flower,6.64,2.69
Flower,7.18,3.08
Venusflytrap,5.38,3.93
PineNeedles,4.15,3.24
Rocks,4.52,2.67
Garden,7.35,4.83
Flowers,7.69,2.98
Nature,7.59,3.77
Garden,7.74,3.87
Seaside,8.26,4.81
Harbor,6.94,5.41
Nature,7.06,3.36
Nature,6.11,3.46
Waterfall,7.2,5.43
Nature,7.32,5.72
Galaxy,6.96,4.09
Galaxy,6.77,5.17
Boat,6.02,2.82
Boat,5.33,4.24
Violinist,6.41,3.18
Liftoff,7,5.96
Cockpit,5.72,4.71
Astronaut,7.3,5.76
Astronaut,7.33,5.61
Satellite,5.02,2.78
Fireworks,7.69,5.41
Mushroom,5.34,3.18
Mushroom,5.1,2.87
Mushroom,5.39,2.95
Mushroom,5.44,2.87
Mushroom,5.07,3.8
Mushrooms,4.99,3.58
Mushrooms,5.49,3.17
Mushrooms,4.96,3.4
Stilllife,4.72,4.28
Clouds,7.79,3.23
Sky,6.69,3.56
Sky,7.54,4.05
Mountains,7.83,4.56
Mountains,7.33,3.54
SkyDivers,7.8,7
Shark,6.23,5.3
Windsurfers,7.26,5.77
HangGlider,6.62,5.98
Mountains,6.6,5.38
Hiker,7.15,6.52
Mountains,7.51,3.48
WinterStreet,6.12,3.86
Mountains,7.38,4.9
Cave,5.91,3.98
Building,6.46,4.29
Mountains,7.54,5.44
Field,6.92,2.62
Farmland,6.58,2.78
Field,7.01,3.33
Grain,6.28,2.66
Flowers,5.58,3.04
Plant,5.33,2.79
Nature,6.87,2.95
Nature,8.41,3.67
Field,6.81,3.37
Courtyard,7.72,3.54
Nature,7.68,3.4
Lake,7.28,3.69
Leaves,6.51,2.47
Flowers,7.88,3.12
Mountain,7.03,4.96
Mountains,7.65,4.35
Sea,8.02,5.58
Sunset,7.85,4.79
Sunset,8.54,4.88
Seagulls,8.05,4.79
Beach,8.27,5.14
Beach,7.36,4.16
Flowers,6.82,5.45
Clouds,6.92,2.56
Bicyclist,6.16,3.24
Earth,6.73,4.13
Clouds,7.58,3.14
Desert,5.75,4.11
Fireworks,8.16,5.8
Volcano,4.63,6.22
Lava,3.76,6.18
Lightning,5.34,6.73
Tornado,3.15,5.8
Tornado,4.03,5.04
Tornado,2.97,6.79
Tornado,3.67,6.31
Tornado,3.23,5.48
Sky,7.85,3.77
Sky,6.54,4.58
Sky,7.06,3.65
Skyline,7.1,4.83
Prison,3.92,4.98
Jail,3.37,4.06
ElectricChair,2.93,5.81
Assault,1.88,6.32
Assault,1.73,6.32
Outlet,5,2.89
Aimedgun,2.91,6.19
AimedGun,2.05,6.62
AimedGun,2.71,6.27
AimedGun,2.15,6.72
Attack,3,6.42
Soldier,1.81,6.53
Terrorist,2.41,6.22
BoysW/Guns,2.3,6.41
AimedGun,2.06,7.56
AimedGun,2.15,6.95
Gun,3.26,5.42
Gun,2.92,4.84
Gang,2.24,5.68
AimedGun,1.9,6.34
AimedGun,2.53,5.72
AimedGun,2.7,6.72
AimedGun,2.12,7.19
IceCream,6.5,5.35
AimedGun,2.35,6.76
AimedGun,2.06,6.72
Knife,1.94,6.84
DistressedFem,2.36,5.12
Abduction,2.08,6.83
Attack,1.61,7.27
Attack,4.25,5.08
BeatenFem,1.72,6.69
Attack,1.44,7.52
Attack,1.86,6.82
Attack,2.2,6.58
AimedGun,2.54,6.18
DeadTiger,1.65,6.51
Attack,2.06,7.16
Attack,1.59,7.12
Attack,2.65,6.35
Attack,1.86,7.14
Attack,2.08,7.2
Knife,2.95,5.78
Attack,1.78,6.86
Attack,2.79,5.49
Attack,2.89,5.03
Attack,1.55,6.77
Suicide,2.1,6.43
Suicide,2.25,6.37
BlowDry,4.84,3.99
CarTheft,2.15,5.87
Gun,2.58,5.45
Gun,2.87,4.9
Gang,1.85,6.62
Military,2.53,5.52
Guns,2.31,6.7
Police,2.21,6.09
Police,3.62,5.48
Police,2.4,6.63
Police,3.05,5.78
Police,4.44,4.46
Police,2.2,6.04
Police,3.07,5.94
Aircraft,4.44,5.31
Bomber,4.49,4.97
Missiles,4.33,4.63
Tank,2.69,5.47
RollingPin,5.06,2.15
Buttons,5.51,3.38
Towel,5.03,3.28
Disk,5.02,3.2
Spoon,5.14,1.94
Bowl,5.09,2.58
Mug,4.89,3.26
Basket,4.92,1.97
GasCan,4.45,3.85
Rubberbands,4.97,2.88
Lightbulb,4.04,4.39
Scissors,5.16,3.3
Razor,4.88,3.54
Video,5.22,3.16
Screw,4.73,4
Tools,5.13,3.29
Fan,4.94,2.19
Whistle,5.29,4.35
Garbage,3.38,4.39
Stool,4.79,2.98
PicnicTable,5.41,2.43
Iron,4.57,3.22
Shoes,4.8,2.36
Shoes,4.76,3.47
Train,5.23,4.05
Hammer,4.91,2.96
Mug,5.15,2.75
Shipyard,4.71,3.18
Trains,4.75,3.7
Shoes,4.68,3.09
Train,6.29,3.26
DustPan,4.66,2.9
Baskets,5.02,2.53
Barbells,5.37,3.64
Drill,4.81,3.14
Scale,4.43,4.21
Zipper,4.88,3.26
Pill,3.98,3.95
HairDryer,5.04,2.9
Clothespins,5.24,2.57
Candlestick,5.15,2.9
Glass,4.05,4.14
Lightbulb,4.89,3.15
Tool,5.12,2.96
Coffeecup,5.43,3.22
Dice,5,3.76
Keyring,4.84,2.51
TrashCan,4.29,2.42
Puzzle,5.42,3.65
Sewing,5.44,3.53
Stove,4.79,4.56
Bucket,3.52,3.73
Waste,3.77,4.38
Fork,5.1,2.67
Luggage,5.6,4.25
Book,5.44,2.92
Scale,3.55,4.53
Headlight,6.13,4.04
Car,5.44,3.94
FireHydrant,5.2,2.73
Hammer,4.59,2.59
Truck,4.75,3.2
CarDamage,2.76,5.73
CarBoot,3.21,4.97
CarDamage,4.03,4.74
Bus,5.41,3.16
Umbrella,4.69,2.56
Fabric,5.05,3.08
Pole,4.97,3.15
BathRoom,6.33,3.45
LightBulb,5.33,3.27
Lamp,4.95,1.87
Rug,5.01,2.89
NeonBuilding,4.7,3.46
Checkerboard,5.03,4.02
Checkerboard,5.53,3.75
AbstractArt,4.78,3.8
AbstractArt,5.08,2.72
AbstractArt,4.38,3.68
AbstractArt,5.25,2.43
AbstractArt,5.3,3.76
Clock,5.59,3.8
Vase,5.81,3.53
Teeth,5.88,4.4
Brownie,7.77,4.85
Scarves,5.75,2.98
Beads,5.3,3.81
Clock,4.69,4.54
ClothesRack,5,2.55
Pastry,7.19,5.7
FileCabinets,4.51,3.01
Turkey,7.35,5.27
Plate,5.15,2.96
IroningBoard,4.12,3.05
Chair,5.06,2.94
Lightbulb,5.55,3.54
AbstractArt,5.45,4.02
AbstractArt,6.55,4.11
Gym,5.94,5.59
Building,5.35,3.56
AbstractArt,4.85,3.92
AbstractArt,5.19,3.78
AbstractArt,5.24,3.87
Cake,6.6,4.59
Cracker,5.13,3.41
Torte,7.31,5.31
IceCream,7.77,5.85
Alcohol,6.14,5.08
Wines,7.73,4.33
Food,6.66,4.49
Cake,7.13,5.09
Fruit,5.88,3.98
Fruit,6.47,4.05
Tomatoes,5.99,4.08
Pancakes,6.41,4.46
Tomato,4.63,3.63
Food,6.16,5.18
Fish,4.22,4.06
Chicken,6.36,4.52
Peanuts,5.7,3.33
Desserts,6.69,4.03
Watermelon,7.48,3.77
IceCream,7.96,5.54
IceCream,6.87,3.69
Pizza,7.11,4.67
Pizza,6.06,4.38
Pizza,6.12,4.58
Garlic,5.36,3.9
PieW/bug,2.52,5.61
FliesOnPie,3.11,5.51
MeatSlicer,2.55,5.43
Meat,4.96,4.26
RoachOnPizza,2.31,6.22
IceCream,6.98,4.73
Candy,7.3,5.44
Pastry,5.84,5.13
Cupcakes,7.55,6.41
Candy,7,4.84
Candy,7.35,5
Cookout,6.41,4.52
Cheeseburger,6.28,5.4
Hamburger,6.49,5.51
FrenchFries,6.71,5.2
FrenchFries,6.14,5.38
Pancakes,7.18,4.72
Grapes,6.14,3.97
Shrimp,6.59,4.28
Ramen,4.86,4.57
Sushi,5.93,4.91
Pasta,7,4.02
Food,6.58,5.06
Lamb,6.16,4.65
Fish,4.71,4
Pastry,4.97,4.12
Chicken,6.06,4.75
Ferry,6.67,4.84
Window,5.66,2.23
Building,4.79,2.24
Ferry,7.51,4.69
Man,5.56,3.38
Store,5.96,3.71
Street,5.99,4.91
Crowd,5.1,5
Concert,6.45,5.52
Building,5.23,3.08
City,6.8,5.41
Castle,8.15,6.07
CardDealer,5.59,3.65
Stairs,5.65,4.49
Cards,5.85,4.55
Casino,5.16,4
Painting,6.49,3.68
FerrisWheel,7.03,5.06
Paintbrush,6.29,3.6
Skyscraper,5.98,4.17
Chess,5.29,3.56
Crochet,5.62,3.36
Crowd,6.38,5.36
Hospital,3.57,4.75
Hospital,3.65,4.71
House,6.72,3.73
Ocean,7.04,3.24
Bridge,5.4,3.66
Bridge,5.16,3.11
Office,5.17,3.52
Freeway,4.5,5.44
Skyline,7.27,4.95
Desert,7.59,4.19
Traffic,5.18,3.72
Traffic,4.53,4.07
Dragon,5.71,5.59
Jet,5.73,5.03
Airplane,5.32,4.96
Skyscraper,4.69,5.86
City,7.03,6.21
Crowd,6.68,5.71
Office,4.2,3.01
Cabinet,4.78,2.8
Bed,5.49,3.4
Agate,5.18,3.95
Agate,5.22,3.81
Violin,6.5,2.37
CarCrash,4.36,3.58
Tissue,5.17,2.27
Basketball,7.46,6.62
Runner,4.24,4.11
Skier,6.88,5.67
Skier,7.35,7.38
Skier,6.75,5.57
IceSkater,7.25,4.77
IceSkater,7.36,5.55
Skier,7.19,6.38
Diver,6.7,5.53
Diver,7.48,5.97
Rower,6.36,4.71
Boxer,4.5,4.91
Kickboxing,4.86,5.33
Sailing,7.73,6.25
Gymnast,7.42,5.71
Football,6.7,6.14
Hockey,5.67,5.21
Rugby,6.2,4.77
Athlete,7.15,4.6
Athlete,4.72,4.29
PoleVaulter,6.83,5.65
Hiker,6.62,6.52
RockClimber,4.69,7.03
HangGlider,6.86,6.22
HotAirBalloon,7.39,5.11
Parachute,7.38,6.53
Sailboat,7.59,5.67
Cliffdiver,6.14,6.92
Bungee,6.04,7.1
CliffDivers,6.86,6.63
Skydivers,7.75,7.42
Skysurfer,6.83,6.72
Skier,8.08,6.16
IceClimber,5.7,6.03
VolcanoSkier,5.21,5.67
Skier,6.91,6.41
WaterSkier,7.86,6.37
Waterskiing,6.91,4.04
Surfers,6.18,6.39
Surfer,6.85,5.24
Boat,7.6,6
Sailboat,5.54,4.92
Runners,6.53,5.41
Boxer,2.11,6.01
Boxer,3.19,5.28
Boxer,4.6,4.99
Rowing,5.65,3.71
Motorcyclist,5.84,4.62
Motorcycle,5.89,5.93
Motorcyclist,5.47,5.02
Diver,6.33,5.02
Pilot,6.54,6.26
Golfer,5.67,3.12
Golf,5.34,3.1
CarRacer,6.14,4.08
RaceCars,5.49,4.3
Winner,7.04,4.24
Plane,6.29,5.37
Wingwalker,5.81,6.46
TennisPlayer,7.52,5.4
Rafting,7.86,6.98
Rafting,6.67,4.67
Athletes,7.88,5.47
Rafters,6.78,6.24
Tubing,7.9,5.41
Runner,7.2,5.5
HappyTeens,7.54,4.54
Runner,6.61,4.93
Nudists,4.49,4.84
Runners,6.35,4.84
Gymnast,7.94,5.98
Biking/train,4.23,6.55
BikerOnFire,3.16,6.59
Fire,2.31,6.32
RollerCoaster,7.44,6.97
Rollercoaster,7.11,7.48
WaterSlide,7.94,6.38
CarnivalRide,7.7,4.46
Rollercoaster,7.7,5.56
Gold,7.16,5.52
Money,7.67,6.02
Money,7.65,6
Money,7.1,5.11
SportCar,7.11,4.59
SportCar,7.11,5.25
Athletes,7.66,5.34
Mascot,6.51,4.33
Woman,5.97,4.71
Cemetery,2.33,4.19
Cemetery,2.82,3.6
Memorial,3.23,4.86
HIVTattoo,3.23,5.28
HIVTattoo,2.08,6.15
Needles,2.3,5.53
Needle,3.14,4.67
BarbedWire,4.17,3.98
Mud,3.12,5.11
StarvingChild,1.5,6.44
ScaredChild,2.65,4.9
StickThruLip,2.44,6.38
Teeth,2.1,5.86
NativeFem,3.59,4.28
Family,2.94,4.63
PlaneCrash,1.9,6.63
Boy,5.13,3.73
StarvingChild,1.29,6.57
Wires,4.08,4.58
Exhaust,3.83,3.75
Exhaust,4.02,4.41
Cocaine,3.4,3.9
Heroin,3.03,5.13
Puddle,3.75,4.04
OilFires,2.9,5.9
Cow,1.88,5.79
Cow,2.91,5.25
Matador,4.42,5.43
Plane,6.2,5.65
Soldier,2.81,6.04
Soldiers,1.57,7
Fisher,3.41,4.69
Seal,3.19,4.98
DeadCows,1.98,6.09
Horses,3.64,5.35
HurtDog,1.48,6.92
InjuredDog,2.17,5.96
DeadDog,1.7,6.41
Vultures,3.03,5.14
InjuredDog,1.36,6.56
Woman,3.63,4.08
Rain,4.64,3.26
Cemetery,1.86,4.16
OilFire,3.56,5.86
WarVictim,2.34,6.67
DeadBody,1.53,6.93
Mutilation,1.6,5.65
Assault,1.88,6.33
Hands,4.79,3.76
HungMan,2.42,4.48
ToxicWaste,3.98,4.94
Smoke,2.69,4.05
Garbage,2.76,4.44
Garbage,2.71,4.9
Garbage,2.31,5.28
Dirty,1.83,6.21
Toilet,1.87,5.66
Toilet,1.97,6
Vomit,2.26,5.32
Vomit,2.01,6.81
Vomit,2.02,5.7
Vomit,1.62,6.55
Vomit,1.84,6.28
Garbage,2.78,4.44
HomelessMan,2.67,4.25
CryingWoman,1.89,5.47
Garbage,2.43,5.57
Pollution,3.26,4.73
Pollution,2.53,4.56
EmptyPool,4.1,2.77
Garbage,3,5.55
Dishes,3.32,4.68
Dishes,3.2,4.55
Soldier,2.03,6.33
Knives,4.23,4.06
Mob,4.28,5.19
Soldiers,3.11,5.54
Soldiers,2.92,4.75
SlicedHand,1.59,6.77
MenW/guns,2.67,5.69
Soldier,1.2,7.54
Boy,4.27,5.15
DeadMan,1.4,7.26
Hanging,1.43,7.35
Execution,1.8,6.57
Handicapped,2.58,5.32
Ticket,2.95,5.25
Assault,2.32,5.24
Soldier,1.87,6.1
Soldier,1.96,5.22
Battleship,4.47,4.95
Assault,2.25,5.58
Bomb,2.48,6.02
Assault,2.48,6.08
Assault,2.89,5.41
Assault,2.55,5.56
Assault,2.22,5.91
Assault,2.4,5.48
Burial,2.3,5.57
Mastectomy,1.95,5.58
DeadMan,1.35,6.71
Accident,1.81,5.09
Skulls,3.16,4.44
Skeleton,3.46,4.63
Gun,2.85,5.66
Grafitti,4.58,4.9
Building,3.93,4.35
Ruins,2.58,5.48
BurntBldg,2.87,4.53
Bridge,3.9,4.04
Skull,3.12,5.87
Corpse,3.06,5.72
DeadBody,2.42,5.91
Fire,2.72,5.46
Porpoises,2.13,5.94
Kids,2.79,5.37
Boys,2.26,5.62
DuckInOil,2.18,5.54
SickKitty,2.21,5.35
Dog,1.47,6.45
Cat,1.38,6.46
DentalExam,4.24,5.38
DentalExam,3.29,5.15
Injecting,2.8,5.62
Injection,2.88,5.32
Injection,3.56,5.53
Injection,3.46,5.33
Injection,2.91,5.52
Ship,1.9,6.7
Accident,2.55,5.43
PlaneCrash,2.42,6
Shipwreck,2.13,6.34
Ship,2.95,5.86
Jet,2.37,6.35
Fire,2.8,6.02
Bomb,2.96,5.84
ManOnFire,1.43,6.76
Fire,3.91,4.81
Trash,4.6,3.29
Skinhead,1.64,6.14
KKKrally,1.94,6.51
Cigarettes,2.42,4.92
Cigarette,2.83,4.91
Cigarettes,2.68,4.86
CarAccident,2.25,5.95
CarAccident,2.07,5.89
CarAccident,2.05,5.81
CarAccident,2.08,5.61
CarAccident,2.21,6.52
CarAccident,2.17,6.02
CarAccident,1.83,6.68
BurningCar,2.46,6.25
CarAccident,1.8,6.38
CarAccident,1.88,6.28
Firefighter,3.51,4.68
Truck,3.95,4.4
CarAccident,2.37,5.84
Fire,1.58,6.87
Fire,2.39,5.27
Fire,2.66,5.45
Flood,3.56,4.65
Flood,2.52,5.27
ShipWave,2.8,5.6
Explosion,1.47,7.03
Fire,2.65,6.16
